%YAML 1.1
%TAG !u! tag:unity3d.com,2011:
--- !u!114 &11400000
MonoBehaviour:
  m_ObjectHideFlags: 0
  m_PrefabParentObject: {fileID: 0}
  m_PrefabInternal: {fileID: 0}
  m_GameObject: {fileID: 0}
  m_Enabled: 1
  m_EditorHideFlags: 0
  m_Script: {fileID: 11500000, guid: c1a9a6d66393b4088930138323da9797, type: 3}
  m_Name: SocialSettings
  m_EditorClassIdentifier: 
  showPermitions: 1
  ShowActions: 1
  ShowAPIS: 1
  fb_scopes_list:
  - user_about_me
  - user_friends
  - email
  - publish_actions
  - read_friendlists
  - user_games_activity
  - user_activities
  - user_likes
  TWITTER_CONSUMER_KEY: REPLACE_WITH_YOUR_CONSUMER_KEY
  TWITTER_CONSUMER_SECRET: REPLACE_WITH_YOUR_CONSUMER_SECRET
  TwitterAPI: 0
  NativeSharingAPI: 0
  InstagramAPI: 0
  KeepManifestClean: 1
